<script>
  var mivariable = 5;
  function mifuncion(){
    mivariable = mivariable * 2;
  }
  for(var f = 0; f < 10; f++){
    mifuncion();
  }
  alert("El valor de mivariable es " + mivariable);
</script>