<!DOCTYPE html>
<html lang="es">
<head>
  <meta charset="utf-8">
  <title>Ventana iframe </title>
  <script src="iframe.js"></script>
</head>
<body>
  <section id="cajadatos"></section>
</body>
</html>