body{
  text-align: center;
}
#principal{
  display: block;
  width: 500px;
  margin: 50px auto;
  padding: 15px;
  border: 1px solid #999999;
  background: #FFFFFF;
}
#titulo{
  font: bold 36px MisNuevasLetras, verdana, sans-serif;
}
@font-face{
  font-family: 'MisNuevasLetras';
  src: url('font.ttf');
}