<!DOCTYPE html>
<html lang="es">
<head>
  <meta charset="utf-8">
  <title>API Web Audio</title>
  <script src="three.min.js"></script>
  <script src="audio.js"></script>
</head>
<body>
  <section>
    <canvas id="canvas" width="500" height="400"></canvas>
  </section>
</body>
</html>