#principal{
  display: block;
  width: 500px;
  margin: 50px auto;
  padding: 15px;
  border: 1px solid #999999;
  background: #FFFFFF;
}
#principal:hover{
  -webkit-transform: rotate(5deg);
  -moz-transform: rotate(5deg);
}